***********************************************************************
***********************************************************************
*** There is no installation process, after unpacking all the files ***
*** from the zip/rar archive to the same folder just run .exe file. ***
*** I hope you find it useful. ****************************************
***********************************************************************
***********************************************************************




Copyright (C) 2017  Piotr Czapik
@author Piotr Czapik
@version 4.01

Map Calculator is free software: you can redistribute it and/or modify
it under the terms of the GNU General Public License as published by
the Free Software Foundation, version 2 of the License.

Map Calculator is distributed in the hope that it will be useful,
but WITHOUT ANY WARRANTY; without even the implied warranty of
MERCHANTABILITY or FITNESS FOR A PARTICULAR PURPOSE.  See the
GNU General Public License for more details.

You should have received a copy of the GNU General Public License
along with Map Calculator.  If not, see <http://www.gnu.org/licenses/>
or write to: latitude1001101@gmail.com

Libraries used:
        		(for calculations on Coordinate Converter tab)
        		
        		Jcoord v.1.1 (C) 2006 Jonathan Stott
        		available at http://www.jstott.me.uk/jcoord/ under GPLv2 license
       